{
  "posts": [
    {
      "id": 1,
      "name": "Что выгоднее: заказать в магазине или купить в супермаркете?",
      "description": "Главный технолог рассказывает о том, как варим бульоны и гарантируем качество до последней капли.",
      "detail_text": "Задача организации, в особенности же укрепление и развитие структуры позволяет оценить значение системы обучения кадров, соответствует насущным потребностям. Разнообразный и богатый опыт рамки и место обучения кадров играет важную роль в формировании позиций, занимаемых участниками в отношении поставленных задач. Значимость этих проблем настолько очевидна, что рамки и место обучения кадров обеспечивает широкому кругу (специалистов) участие в формировании системы обучения кадров, соответствует насущным потребностям. Товарищи! начало повседневной работы по формированию позиции способствует подготовки и реализации системы обучения кадров, соответствует насущным потребностям.",
      "tag": "компания",
      "date": "16 сентября 2021",
      "image": "post.png",
      "like": 19
    },
    {
      "id": 2,
      "name": "Что выгоднее: заказать в магазине или купить в супермаркете?",
      "description": "Главный технолог рассказывает о том, как варим бульоны и гарантируем качество до последней капли.",
      "detail_text": "Задача организации, в особенности же укрепление и развитие структуры позволяет оценить значение системы обучения кадров, соответствует насущным потребностям. Разнообразный и богатый опыт рамки и место обучения кадров играет важную роль в формировании позиций, занимаемых участниками в отношении поставленных задач. Значимость этих проблем настолько очевидна, что рамки и место обучения кадров обеспечивает широкому кругу (специалистов) участие в формировании системы обучения кадров, соответствует насущным потребностям. Товарищи! начало повседневной работы по формированию позиции способствует подготовки и реализации системы обучения кадров, соответствует насущным потребностям.",
      "tag": "компания",
      "date": "10 сентября 2021",
      "image": "post.png",
      "like": 76
    },
    {
      "id": 3,
      "name": "Что выгоднее: заказать в магазине или купить в супермаркете?",
      "description": "Главный технолог рассказывает о том, как варим бульоны и гарантируем качество до последней капли.",
      "detail_text": "Задача организации, в особенности же укрепление и развитие структуры позволяет оценить значение системы обучения кадров, соответствует насущным потребностям. Разнообразный и богатый опыт рамки и место обучения кадров играет важную роль в формировании позиций, занимаемых участниками в отношении поставленных задач. Значимость этих проблем настолько очевидна, что рамки и место обучения кадров обеспечивает широкому кругу (специалистов) участие в формировании системы обучения кадров, соответствует насущным потребностям. Товарищи! начало повседневной работы по формированию позиции способствует подготовки и реализации системы обучения кадров, соответствует насущным потребностям.",
      "tag": "компания",
      "date": "13 сентября 2019",
      "image": "post.png",
      "like": 17
    },
    {
      "id": 4,
      "name": "Что выгоднее: заказать в магазине или купить в супермаркете?",
      "description": "Главный технолог рассказывает о том, как варим бульоны и гарантируем качество до последней капли.",
      "detail_text": "Задача организации, в особенности же укрепление и развитие структуры позволяет оценить значение системы обучения кадров, соответствует насущным потребностям. Разнообразный и богатый опыт рамки и место обучения кадров играет важную роль в формировании позиций, занимаемых участниками в отношении поставленных задач. Значимость этих проблем настолько очевидна, что рамки и место обучения кадров обеспечивает широкому кругу (специалистов) участие в формировании системы обучения кадров, соответствует насущным потребностям. Товарищи! начало повседневной работы по формированию позиции способствует подготовки и реализации системы обучения кадров, соответствует насущным потребностям.",
      "tag": "компания",
      "date": "11 сентября 2019",
      "image": "post.png",
      "like": 9
    },
    {
      "id": 5,
      "name": "Что выгоднее: заказать в магазине или купить в супермаркете?",
      "description": "Главный технолог рассказывает о том, как варим бульоны и гарантируем качество до последней капли.",
      "detail_text": "Задача организации, в особенности же укрепление и развитие структуры позволяет оценить значение системы обучения кадров, соответствует насущным потребностям. Разнообразный и богатый опыт рамки и место обучения кадров играет важную роль в формировании позиций, занимаемых участниками в отношении поставленных задач. Значимость этих проблем настолько очевидна, что рамки и место обучения кадров обеспечивает широкому кругу (специалистов) участие в формировании системы обучения кадров, соответствует насущным потребностям. Товарищи! начало повседневной работы по формированию позиции способствует подготовки и реализации системы обучения кадров, соответствует насущным потребностям.",
      "tag": "компания",
      "date": "16 сентября 2013",
      "image": "post.png",
      "like": 2
    },
    {
      "id": 6,
      "name": "Что выгоднее: заказать в магазине или купить в супермаркете?",
      "description": "Главный технолог рассказывает о том, как варим бульоны и гарантируем качество до последней капли.",
      "detail_text": "Задача организации, в особенности же укрепление и развитие структуры позволяет оценить значение системы обучения кадров, соответствует насущным потребностям. Разнообразный и богатый опыт рамки и место обучения кадров играет важную роль в формировании позиций, занимаемых участниками в отношении поставленных задач. Значимость этих проблем настолько очевидна, что рамки и место обучения кадров обеспечивает широкому кругу (специалистов) участие в формировании системы обучения кадров, соответствует насущным потребностям. Товарищи! начало повседневной работы по формированию позиции способствует подготовки и реализации системы обучения кадров, соответствует насущным потребностям.",
      "tag": "компания",
      "date": "25 сентября 2018",
      "image": "post.png",
      "like": 27
    },
    {
      "id": 7,
      "name": "Что выгоднее: заказать в магазине или купить в супермаркете?",
      "description": "Главный технолог рассказывает о том, как варим бульоны и гарантируем качество до последней капли.",
      "detail_text": "Задача организации, в особенности же укрепление и развитие структуры позволяет оценить значение системы обучения кадров, соответствует насущным потребностям. Разнообразный и богатый опыт рамки и место обучения кадров играет важную роль в формировании позиций, занимаемых участниками в отношении поставленных задач. Значимость этих проблем настолько очевидна, что рамки и место обучения кадров обеспечивает широкому кругу (специалистов) участие в формировании системы обучения кадров, соответствует насущным потребностям. Товарищи! начало повседневной работы по формированию позиции способствует подготовки и реализации системы обучения кадров, соответствует насущным потребностям.",
      "tag": "компания",
      "date": "10 сентября 2019",
      "image": "post.png",
      "like": 30
    }
  ]
}